…
+ AGE_10_1 %in% na_values, "unknown", as.character(AGE_10_1)))
> ADR_master$PREPARE_drugs <- as.numeric(as.character(ADR_master$PREPARE_drugs))
> total_counts <- ADR_master %>% group_by(new_AGE, PREPARE_drugs) %>% 
+ summarise(Total = n(), .groups = "drop") %>% mutate(Drug_Type = ifelse(PREPARE_drugs == 
+ 1, "PREPARE", "Non-PREPARE"))
> total_drug_counts <- total_counts %>% group_by(Drug_Type) %>% 
+ summarise(Overall_Total = sum(Total), .groups = "drop")
> combined_data <- total_counts %>% left_join(total_drug_counts, 
+ by = "Drug_Type") %>% mutate(Percentage = (Total/Overall_Total) * 
+ 100) %>% select(new_AGE, Drug_Type, Percentage)
> View(combined_data)
> mean_sd_age <- total_counts %>% group_by(Drug_Type, new_AGE) %>% 
+ summarise(Mean = mean(Total), SD = sd(Total)) %>% ungroup()
> print(mean_sd_age)
# A tibble: 24 × 4
   Drug_Type   new_AGE   Mean    SD
   <chr>       <chr>    <dbl> <dbl>
 1 Non-PREPARE 0        32134    NA
 2 Non-PREPARE 10       41686    NA
 3 Non-PREPARE 100        199    NA
 4 Non-PREPARE 20       92931    NA
 5 Non-PREPARE 30      119054    NA
 6 Non-PREPARE 40      133466    NA
 7 Non-PREPARE 50      159143    NA
 8 Non-PREPARE 60      166998    NA
 9 Non-PREPARE 70      140053    NA
10 Non-PREPARE 80       63449    NA
# ℹ 14 more rows
# ℹ Use `print(n = ...)` to see more rows
…
