…
+ SLCO1B1 = sum(SLCO1B1_PREPARE), CYP2D6 = sum(CYP2D6_PREPARE), 
+ OTHER = sum(OTHER_PREPARE))
> percentage_per_gene_per_decade <- reports_per_gene_per_decade %>% 
+ left_join(total_reports_per_decade, by = "Decade") %>% mutate(CYP2C19 = (CYP2C19/n) * 
+ 100, SLCO1B1 = (SLCO1B1/n) * 100, CYP2D6 = (CYP2D6/n) * 100, 
+ OTHER = (OTHER/n) * 100) %>% select(-n) %>% pivot_longer(-Decade, 
+ names_to = "Gene", values_to = "Percentage")
> my_colors <- c("#ffffb3", "#80b1d3", "#ccebc5", "#b3de69")
> plot_stacked_bar <- ggplot(percentage_per_gene_per_decade, aes(x = factor(Decade), 
+ y = Percentage, fill = Gene)) + geom_bar(stat = "identity") + 
+ labs(x = "Decade", y = "Percentage", title = "Percentage of ADR Reports Associated with PREPARE drugs and their associated genes per Decade") + 
+ theme_minimal() + scale_fill_manual(values = my_colors)
> print(plot_stacked_bar)
> print(percentage_per_gene_per_decade)
# A tibble: 28 × 3
   Decade Gene    Percentage
    <dbl> <chr>        <dbl>
 1   1960 CYP2C19     1.02  
 2   1960 SLCO1B1     0     
 3   1960 CYP2D6      3.61  
 4   1960 OTHER       0.937 
 5   1970 CYP2C19     0.660 
 6   1970 SLCO1B1     0     
 7   1970 CYP2D6      2.57  
 8   1970 OTHER       1.15  
 9   1980 CYP2C19     0.398 
10   1980 SLCO1B1     0.0634
# ℹ 18 more rows
# ℹ Use `print(n = ...)` to see more rows
…
> ADR_master <- ADR_master %>% mutate(Calculated_PREPARE_drugs = ifelse(CYP2C19_PREPARE == 
+ 1 | CYP2D6_PREPARE == 1 | SLCO1B1_PREPARE == 1 | OTHER_PREPARE == 
+ 1, 1, 0))
> identical(ADR_master$PREPARE_drugs, ADR_master$Calculated_PREPARE_drugs)
[1] FALSE
> count_ones <- colSums(ADR_master[, c("CYP2C19_PREPARE", "CYP2D6_PREPARE", 
+ "SLCO1B1_PREPARE", "OTHER_PREPARE")] == 1)
> count_total_PREPARE_ADRs <- sum(ADR_master$PREPARE_drugs == 1)
> print(count_ones)
CYP2C19_PREPARE  CYP2D6_PREPARE SLCO1B1_PREPARE   OTHER_PREPARE 
          23443           46419           17537           30248 
> print(count_total_PREPARE_ADRs)
[1] 115789
> print(percentage_per_gene_per_decade)
# A tibble: 28 × 3
   Decade Gene    Percentage
    <dbl> <chr>        <dbl>
 1   1960 CYP2C19     1.02  
 2   1960 SLCO1B1     0     
 3   1960 CYP2D6      3.61  
 4   1960 OTHER       0.961 
 5   1970 CYP2C19     0.660 
 6   1970 SLCO1B1     0     
 7   1970 CYP2D6      2.57  
 8   1970 OTHER       1.24  
 9   1980 CYP2C19     0.398 
10   1980 SLCO1B1     0.0634
# ℹ 18 more rows
# ℹ Use `print(n = ...)` to see more rows
…
6   2010 396779
7   2020 318299
> print(reports_per_gene_per_decade)
# A tibble: 7 × 13
  Decade CYP2C19 SLCO1B1 CYP2D6  DPYD UGT1A1 VKORC1 HLA_A HLA_B  TPMT CYP3A5 CYP2B6 CYP2C9
   <dbl>   <int>   <int>  <int> <int>  <int>  <int> <int> <int> <int>  <int>  <int>  <int>
1   1960     218       0    771     1      0     28   126   126     5      0      0     73
2   1970     431       0   1676    20      0    189   282   347    68      0      0    374
3   1980     527      84   2490    28      0    193  1405  1581   198      0      0    535
4   1990    3489    3339  14205    77     40    600  1363  1760   400     71     77    940
5   2000    5996    5135  10447   785    107   1406  1333  1810   801    451    382   1904
6   2010    7503    5327   9986  1243    148   2023  1333  3874  1269   1131    370   2486
7   2020    5279    3652   6844   794     98    730   689  3226   545   1076    124    903
> print(percentage_per_gene_per_decade)
# A tibble: 84 × 3
   Decade Gene    Percentage
    <dbl> <chr>        <dbl>
 1   1960 CYP2C19    1.02   
 2   1960 SLCO1B1    0      
 3   1960 CYP2D6     3.61   
 4   1960 DPYD       0.00469
 5   1960 UGT1A1     0      
 6   1960 VKORC1     0.131  
 7   1960 HLA_A      0.590  
 8   1960 HLA_B      0.590  
 9   1960 TPMT       0.0234 
10   1960 CYP3A5     0      
# ℹ 74 more rows
# ℹ Use `print(n = ...)` to see more rows
…
82   2020 CYP3A5     0.338  
83   2020 CYP2B6     0.0390 
84   2020 CYP2C9     0.284  
> percentage_per_gene_per_decade <- reports_per_gene_per_decade %>% 
+ left_join(total_reports_per_decade, by = "Decade") %>% mutate(CYP2C19 = (CYP2C19/n) * 
+ 100, SLCO1B1 = (SLCO1B1/n) * 100, CYP2D6 = (CYP2D6/n) * 100, 
+ DPYD = (DPYD/n) * 100, UGT1A1 = (UGT1A1/n) * 100, VKORC1 = (VKORC1/n) * 
+ 
+ 100, HLA_A = (HLA_A/n) * 100, HLA_B = (HLA_B/n) * 100, 
+ TPMT = (TPMT/n) * 100, CYP3A5 = (CYP3A5/n) * 100, CYP2B6 = (CYP2B6/n) * 
+ 
+ 100, CYP2C9 = (CYP2C9/n) * 100) %>% select(-n) %>% pivot_longer(-Decade, 
+ names_to = "Gene", values_to = "Percentage")
> print(percentage_per_gene_per_decade)
# A tibble: 84 × 3
   Decade Gene    Percentage
    <dbl> <chr>        <dbl>
 1   1960 CYP2C19    1.02   
 2   1960 SLCO1B1    0      
 3   1960 CYP2D6     3.61   
 4   1960 DPYD       0.00469
 5   1960 UGT1A1     0      
 6   1960 VKORC1     0.131  
 7   1960 HLA_A      0.590  
 8   1960 HLA_B      0.590  
 9   1960 TPMT       0.0234 
10   1960 CYP3A5     0      
# ℹ 74 more rows
# ℹ Use `print(n = ...)` to see more rows
…
