…
4   1990   7.815509
5   2000   4.547690
6   2010   2.516766
7   2020   2.150180
> print(df_prepare_overall)
  Decade Percentage
1   1960   4.573356
2   1970   3.804464
3   1980   3.712453
4   1990  13.242625
5   2000  12.026328
6   2010   8.371663
7   2020   7.067569
> print(percentage_per_CYP2D6_drug_per_decade)
# A tibble: 104 × 4
# Groups:   Decade [7]
   Decade CYP2D6_drugs  Count Percentage
    <dbl> <chr>         <int>      <dbl>
 1   1960 AMITRIPTYLINE   294    0.633  
 2   1960 CLOMIPRAMINE      1    0.00215
 3   1960 CODEINE          85    0.183  
 4   1960 DOXEPIN           8    0.0172 
 5   1960 HALOPERIDOL      46    0.0991 
 6   1960 IMIPRAMINE      217    0.467  
 7   1960 NORTRIPTYLINE   120    0.259  
 8   1970 AMITRIPTYLINE   333    0.717  
 9   1970 CLOMIPRAMINE    226    0.487  
10   1970 CODEINE         163    0.351  
# ℹ 94 more rows
# ℹ Use `print(n = ...)` to see more rows
…
+ names_to = "Gene", values_to = "Percentage")
> View(percentage_per_gene_per_decade)
> print(total_reports_per_decade)
  Decade      n
1   1960  21341
2   1970  65318
3   1980 132500
4   1990 181754
5   2000 229721
6   2010 396779
7   2020 318299
> reports_per_CYP2D6_drug_per_decade <- ADR_master %>% mutate(Decade = (RECVD_YEAR_1%/%10) * 
+ 10) %>% group_by(Decade, CYP2D6_drugs) %>% summarise(Count = n())
> print(reports_per_CYP2D6_drug_per_decade)
# A tibble: 111 × 3
# Groups:   Decade [7]
   Decade CYP2D6_drugs  Count
    <dbl> <chr>         <int>
 1   1960 AMITRIPTYLINE   294
 2   1960 CLOMIPRAMINE      1
 3   1960 CODEINE          85
 4   1960 DOXEPIN           8
 5   1960 HALOPERIDOL      46
 6   1960 IMIPRAMINE      217
 7   1960 NORTRIPTYLINE   120
 8   1960 no            20570
 9   1970 AMITRIPTYLINE   333
10   1970 CLOMIPRAMINE    226
# ℹ 101 more rows
# ℹ Use `print(n = ...)` to see more rows
> reports_per_CYP2D6_drug_per_decade <- reports_per_CYP2D6_drug_per_decade %>% 
+ filter(CYP2D6_drugs != "no")
> total_reports_CYP2D6 <- sum(reports_per_CYP2D6_drug_per_decade$Count)
> print(total_reports_CYP2D6)
[1] 46419
> percentage_per_CYP2D6_drug_per_decade <- reports_per_CYP2D6_drug_per_decade %>% 
+ mutate(Percentage = (Count/total_reports_CYP2D6) * 100)
> print(percentage_per_CYP2D6_drug_per_decade)
# A tibble: 104 × 4
# Groups:   Decade [7]
   Decade CYP2D6_drugs  Count Percentage
    <dbl> <chr>         <int>      <dbl>
 1   1960 AMITRIPTYLINE   294    0.633  
 2   1960 CLOMIPRAMINE      1    0.00215
 3   1960 CODEINE          85    0.183  
 4   1960 DOXEPIN           8    0.0172 
 5   1960 HALOPERIDOL      46    0.0991 
 6   1960 IMIPRAMINE      217    0.467  
 7   1960 NORTRIPTYLINE   120    0.259  
 8   1970 AMITRIPTYLINE   333    0.717  
 9   1970 CLOMIPRAMINE    226    0.487  
10   1970 CODEINE         163    0.351  
# ℹ 94 more rows
# ℹ Use `print(n = ...)` to see more rows
> print(percentage_per_gene_per_decade)
# A tibble: 28 × 3
   Decade Gene    Percentage
    <dbl> <chr>        <dbl>
 1   1960 CYP2C19     1.02  
 2   1960 SLCO1B1     0     
 3   1960 CYP2D6      3.61  
 4   1960 OTHER       0.961 
 5   1970 CYP2C19     0.660 
 6   1970 SLCO1B1     0     
 7   1970 CYP2D6      2.57  
 8   1970 OTHER       1.24  
 9   1980 CYP2C19     0.398 
10   1980 SLCO1B1     0.0634
# ℹ 18 more rows
# ℹ Use `print(n = ...)` to see more rows
…
> reports_per_CYP2D6_drug_per_decade <- ADR_master %>% mutate(Decade = (RECVD_YEAR_1%/%10) * 
+ 10) %>% group_by(Decade, CYP2D6_drugs) %>% summarise(Count = n())
> reports_per_CYP2D6_drug_per_decade <- reports_per_CYP2D6_drug_per_decade %>% 
+ filter(CYP2D6_drugs != "no") %>% ungroup() %>% left_join(total_reports_per_decade, 
+ by = "Decade") %>% mutate(Percentage = Count/sum(Count) * 
+ 100)
> plot_stacked_bar_CYP2D6 <- ggplot(reports_per_CYP2D6_drug_per_decade, 
+ aes(x = factor(Decade), y = Percentage, fill = CYP2D6_drugs)) + 
+ geom_bar(stat = "identity") + labs(x = "Decade", y = "Percentage of ADR Reports", 
+ title = "Percentage of ADR Reports Associated with CYP2D6 Drugs per Decade") + 
+ theme_minimal() + theme(axis.text.x = element_text(angle = 45, 
+ hjust = 1))
> print(plot_stacked_bar_CYP2D6)
> print(reports_per_CYP2D6_drug_per_decade)
# A tibble: 104 × 5
   Decade CYP2D6_drugs  Count     n Percentage
    <dbl> <chr>         <int> <int>      <dbl>
 1   1960 AMITRIPTYLINE   294 21341    0.633  
 2   1960 CLOMIPRAMINE      1 21341    0.00215
 3   1960 CODEINE          85 21341    0.183  
 4   1960 DOXEPIN           8 21341    0.0172 
 5   1960 HALOPERIDOL      46 21341    0.0991 
 6   1960 IMIPRAMINE      217 21341    0.467  
 7   1960 NORTRIPTYLINE   120 21341    0.259  
 8   1970 AMITRIPTYLINE   333 65318    0.717  
 9   1970 CLOMIPRAMINE    226 65318    0.487  
10   1970 CODEINE         163 65318    0.351  
# ℹ 94 more rows
# ℹ Use `print(n = ...)` to see more rows
…
